{
  "global" : false,
  "icon" : "../../images/module-icons/menu.svg",
  "host_template_types" : [ "PAGE", "BLOG_POST", "BLOG_LISTING" ],
  "module_id" : 59243109731,
  "label" : "Menu",
  "is_available_for_new_content" : true
}