{
  "label": "Base HubSpot Theme",
  "preview_path": "./templates/blank-drag-and-drop.html",
  "screenshot_path": "./images/template-previews/blank-drag-and-drop.png",
  "enable_domain_stylesheets": false,
  "version": "1.0",
  "author": {
    "name": "Karman Digital",
    "email": "dev@karman.digital",
    "url": "https://karman.digital"
  },
  "license": "./license.txt",
  "responsive_breakpoints": [
    {
      "name": "mobile",
      "mediaQuery": "@media (max-width: 767px)",
      "previewWidth": {
        "value": 477
      }
    }
  ]
}
