[ {
  "id" : "d3231545-f60c-a1f5-192e-6ad4bda626b6",
  "name" : "images_logos",
  "display_width" : null,
  "label" : "Images/Logos",
  "required" : false,
  "locked" : false,
  "occurrence" : {
    "min" : 1,
    "max" : null,
    "sorting_label_field" : "3a1c3632-52f4-6746-631b-56234b5c2f08",
    "default" : 1
  },
  "children" : [ {
    "id" : "3a1c3632-52f4-6746-631b-56234b5c2f08",
    "name" : "image_logo",
    "display_width" : null,
    "label" : "Image/Logo",
    "required" : false,
    "locked" : false,
    "responsive" : true,
    "resizable" : true,
    "show_loading" : false,
    "type" : "image",
    "default" : {
      "size_type" : "auto",
      "src" : "https://fs.hubspotusercontent00.net/hubfs/285855/TAB%20UK%20Website/Client%20and%20Partner%20Logos/waterloo-quay-properties.png",
      "alt" : "waterloo-quay-properties",
      "loading" : "lazy",
      "width" : 386,
      "height" : 217,
      "max_width" : 386,
      "max_height" : 217
    }
  }, {
    "id" : "670d60d4-5048-3e45-14a7-978e8a9035f2",
    "name" : "add_link",
    "display_width" : null,
    "label" : "Add link?",
    "required" : false,
    "locked" : false,
    "display" : "toggle",
    "type" : "boolean",
    "default" : false
  }, {
    "id" : "dac96aab-2d18-dbbe-f476-da1624130a19",
    "name" : "link_field",
    "display_width" : null,
    "label" : "Link",
    "required" : false,
    "locked" : false,
    "visibility" : {
      "controlling_field" : "670d60d4-5048-3e45-14a7-978e8a9035f2",
      "controlling_value_regex" : "true",
      "operator" : "EQUAL",
      "access" : null,
      "hidden_subfields" : null
    },
    "supported_types" : [ "EXTERNAL", "CONTENT", "FILE", "EMAIL_ADDRESS", "BLOG" ],
    "show_advanced_rel_options" : false,
    "type" : "link",
    "default" : {
      "url" : {
        "content_id" : null,
        "type" : "EXTERNAL",
        "href" : ""
      },
      "open_in_new_tab" : false,
      "no_follow" : false
    }
  } ],
  "tab" : "CONTENT",
  "expanded" : false,
  "type" : "group",
  "default" : [ {
    "image_logo" : {
      "size_type" : "auto",
      "src" : "https://fs.hubspotusercontent00.net/hubfs/285855/TAB%20UK%20Website/Client%20and%20Partner%20Logos/waterloo-quay-properties.png",
      "alt" : "waterloo-quay-properties",
      "loading" : "lazy",
      "width" : 386,
      "height" : 217,
      "max_width" : 386,
      "max_height" : 217
    },
    "add_link" : false,
    "link_field" : {
      "url" : {
        "content_id" : null,
        "type" : "EXTERNAL",
        "href" : ""
      },
      "open_in_new_tab" : false,
      "no_follow" : false
    }
  } ]
}, {
  "id" : "4499c382-4c75-52f3-a0ed-b427842c5b4a",
  "name" : "white_text_navigation",
  "display_width" : null,
  "label" : "White text/navigation",
  "inline_help_text" : "Toggle this on if you'd like the arrows and nav dots to be white (ideal for dark/colour backgrounds)",
  "required" : false,
  "locked" : false,
  "display" : "toggle",
  "type" : "boolean",
  "default" : false
}, {
  "id" : "638c972f-5855-73b6-4242-816156037c37",
  "name" : "number_of_slides_to_show",
  "display_width" : null,
  "label" : "Number of slides to show",
  "required" : false,
  "locked" : false,
  "display" : "text",
  "min" : 1,
  "step" : 1,
  "type" : "number",
  "default" : 5
}, {
  "id" : "5a99b028-649e-007d-9960-d0c6734c8fdd",
  "name" : "show_slider_arrows",
  "display_width" : null,
  "label" : "Show slider arrows",
  "required" : false,
  "locked" : false,
  "display" : "toggle",
  "type" : "boolean",
  "default" : false
}, {
  "id" : "facafdf6-79b1-fc9a-497b-32dddf283644",
  "name" : "show_slider_dots",
  "display_width" : null,
  "label" : "Show slider dots",
  "required" : false,
  "locked" : false,
  "display" : "toggle",
  "type" : "boolean",
  "default" : true
}, {
  "id" : "fe7c049a-e3cd-c65f-4710-f1f5b643c081",
  "name" : "auto_rotate_slides",
  "display_width" : null,
  "label" : "Auto-rotate slides",
  "required" : false,
  "locked" : false,
  "display" : "toggle",
  "type" : "boolean",
  "default" : true
}, {
  "id" : "b8a60271-f2da-d8eb-1806-b570d939ad32",
  "name" : "auto_rotate_speed",
  "display_width" : null,
  "label" : "Auto-rotate speed",
  "required" : false,
  "locked" : false,
  "visibility" : {
    "controlling_field" : "fe7c049a-e3cd-c65f-4710-f1f5b643c081",
    "controlling_value_regex" : "true",
    "operator" : "EQUAL",
    "access" : null,
    "hidden_subfields" : null
  },
  "display" : "text",
  "min" : 1,
  "step" : 1,
  "type" : "number",
  "default" : 8
} ]